{
    "_comment": "Build with `packer build -var-file=oel511.json oraclelinux.json`",
    "vm_name": "oel511",
    "cpus": "1",
    "memory": "4096",
    "disk_size": "65536",
    "iso_checksum": "8af2121088c7e6f5ebdb6d5900403240",
    "iso_checksum_type": "md5",
    "iso_name": "Enterprise-R5-U11-Server-x86_64-dvd.iso",
    "iso_url": "http://mirrors.dotsrc.org/oracle-linux/EL5/U11/x86_64/Enterprise-R5-U11-Server-x86_64-dvd.iso",
    "kickstart": "ks5.cfg",
    "virtualbox_guest_os_type": "Oracle_64",
    "shutdown_command": "echo 'vagrant'|sudo -S /sbin/shutdown -h now"
}